[gd_scene load_steps=5 format=2]

[ext_resource path="res://texture.png" type="Texture" id=1]

[sub_resource type="CubeMesh" id=1]
size = Vector3( 10, 2, 10 )

[sub_resource type="SpatialMaterial" id=2]
albedo_color = Color( 0.580392, 0.392157, 0.392157, 1 )
albedo_texture = ExtResource( 1 )
uv1_triplanar = true

[sub_resource type="BoxShape" id=3]
extents = Vector3( 5, 1, 5 )

[node name="wall" type="StaticBody"]

[node name="MeshInstance" type="MeshInstance" parent="."]
use_in_baked_light = true
mesh = SubResource( 1 )
material/0 = SubResource( 2 )

[node name="CollisionShape" type="CollisionShape" parent="."]
shape = SubResource( 3 )
