[gd_scene load_steps=6 format=2]

[ext_resource path="res://scenes/hook.gd" type="Script" id=1]
[ext_resource path="res://textures/icon.png" type="Texture" id=2]
[ext_resource path="res://scenes/Sprite3D.gd" type="Script" id=3]

[sub_resource type="SphereShape" id=1]
radius = 0.1

[sub_resource type="CubeMesh" id=2]

[node name="Spatial" type="Spatial"]

[node name="hook" type="KinematicBody" parent="."]
transform = Transform( 1, 0, 0, 0, 1, 0, 0, 0, 1, 6.39432, 5.17185, -5.7055 )
script = ExtResource( 1 )

[node name="CollisionShape" type="CollisionShape" parent="hook"]
shape = SubResource( 1 )

[node name="MeshInstance" type="MeshInstance" parent="hook"]
mesh = SubResource( 2 )
material/0 = null

[node name="Sprite3D" type="Sprite3D" parent="."]
transform = Transform( 0.665774, -0.385537, -0.638832, 0, 0.856167, -0.516699, 0.746153, 0.344005, 0.570014, 0, 0, 0 )
centered = false
offset = Vector2( -10, 0 )
axis = 1
texture = ExtResource( 2 )
region_enabled = true
region_rect = Rect2( 0, 0, 20, 960.902 )
script = ExtResource( 3 )
